Date	Hour	GantryID	31	32	41	42	5
20210401	00	03F2100N	76	15	0	4	3
20210401	01	03F2100N	35	5	0	3	1
20210401	02	03F2100N	23	9	0	3	1
20210401	03	03F2100N	17	17	0	10	3
20210401	04	03F2100N	49	27	0	11	4
20210401	05	03F2100N	96	64	8	11	15
20210401	06	03F2100N	461	135	9	25	20
20210401	07	03F2100N	1272	416	12	54	16
20210401	08	03F2100N	820	376	13	67	37
20210401	09	03F2100N	582	317	5	93	49
20210401	10	03F2100N	515	378	4	78	44
20210401	11	03F2100N	494	301	4	71	42
20210401	12	03F2100N	480	229	4	65	24
20210401	13	03F2100N	507	309	10	71	21
20210401	14	03F2100N	571	416	5	79	50
20210401	15	03F2100N	616	366	22	79	38
20210401	16	03F2100N	730	359	14	63	27
20210401	17	03F2100N	831	317	5	48	15
20210401	18	03F2100N	705	219	6	34	15
20210401	19	03F2100N	518	129	4	14	7
20210401	20	03F2100N	454	124	5	12	5
20210401	21	03F2100N	423	94	2	3	6
20210401	22	03F2100N	310	69	1	5	3
20210401	23	03F2100N	211	45	0	4	4
20210402	00	03F2100N	116	31	2	2	4
20210402	01	03F2100N	79	13	5	3	1
20210402	02	03F2100N	50	16	2	3	4
20210402	03	03F2100N	55	14	6	4	2
20210402	04	03F2100N	79	41	4	12	5
20210402	05	03F2100N	133	57	1	8	2
20210402	06	03F2100N	321	120	4	12	6
20210402	07	03F2100N	524	245	4	36	6
20210402	08	03F2100N	424	205	4	20	0
20210402	09	03F2100N	524	181	3	40	13
20210402	10	03F2100N	525	175	3	24	7
20210402	11	03F2100N	515	164	3	28	14
20210402	12	03F2100N	525	165	2	20	11
20210402	13	03F2100N	557	177	4	45	10
20210402	14	03F2100N	501	189	5	25	14
20210402	15	03F2100N	512	195	3	31	11
20210402	16	03F2100N	515	212	3	28	5
20210402	17	03F2100N	575	217	4	33	6
20210402	18	03F2100N	457	124	4	13	5
20210402	19	03F2100N	458	100	5	16	2
20210402	20	03F2100N	375	96	3	9	2
20210402	21	03F2100N	389	69	2	6	0
20210402	22	03F2100N	303	54	1	5	2
20210402	23	03F2100N	189	47	1	5	0
20210403	00	03F2100N	129	31	3	3	1
20210403	01	03F2100N	79	21	2	7	2
20210403	02	03F2100N	53	10	0	1	0
20210403	03	03F2100N	48	22	1	5	0
20210403	04	03F2100N	64	34	3	6	2
20210403	05	03F2100N	109	69	0	3	4
20210403	06	03F2100N	250	120	5	8	1
20210403	07	03F2100N	470	201	4	18	4
20210403	08	03F2100N	468	176	3	14	8
20210403	09	03F2100N	503	114	2	15	3
20210403	10	03F2100N	657	171	3	20	3
20210403	11	03F2100N	691	207	5	19	9
20210403	12	03F2100N	594	139	2	14	12
20210403	13	03F2100N	674	183	2	18	7
20210403	14	03F2100N	626	170	5	13	9
20210403	15	03F2100N	677	168	7	13	5
20210403	16	03F2100N	618	170	5	12	7
20210403	17	03F2100N	646	202	3	18	4
20210403	18	03F2100N	531	139	5	7	2
20210403	19	03F2100N	500	108	4	5	1
20210403	20	03F2100N	483	86	3	10	3
20210403	21	03F2100N	390	70	3	9	1
20210403	22	03F2100N	332	72	1	5	3
20210403	23	03F2100N	236	37	1	4	2
20210404	00	03F2100N	136	19	3	5	0
20210404	01	03F2100N	102	17	1	2	1
20210404	02	03F2100N	55	9	1	1	0
20210404	03	03F2100N	59	17	2	5	0
20210404	04	03F2100N	72	24	2	2	1
20210404	05	03F2100N	109	53	0	2	0
20210404	06	03F2100N	275	85	3	4	1
20210404	07	03F2100N	514	126	2	5	0
20210404	08	03F2100N	481	114	2	4	1
20210404	09	03F2100N	597	164	3	10	0
20210404	10	03F2100N	683	167	3	3	0
20210404	11	03F2100N	617	120	2	4	1
20210404	12	03F2100N	641	137	3	3	0
20210404	13	03F2100N	723	152	2	7	0
20210404	14	03F2100N	655	142	5	11	1
20210404	15	03F2100N	567	121	4	2	0
20210404	16	03F2100N	479	99	3	3	2
20210404	17	03F2100N	451	96	4	7	3
20210404	18	03F2100N	385	85	4	3	0
20210404	19	03F2100N	370	81	3	4	0
20210404	20	03F2100N	398	75	2	3	3
20210404	21	03F2100N	382	67	4	3	0
20210404	22	03F2100N	309	64	1	4	0
20210404	23	03F2100N	195	46	1	3	1
20210405	00	03F2100N	199	18	2	0	1
20210405	01	03F2100N	106	13	2	2	0
20210405	02	03F2100N	55	3	1	3	0
20210405	03	03F2100N	67	6	0	4	1
20210405	04	03F2100N	45	11	0	6	1
20210405	05	03F2100N	95	39	5	4	2
20210405	06	03F2100N	269	78	7	9	2
20210405	07	03F2100N	543	165	17	10	7
20210405	08	03F2100N	498	154	8	12	15
20210405	09	03F2100N	656	141	21	15	7
20210405	10	03F2100N	642	160	2	13	8
20210405	11	03F2100N	574	157	2	18	4
20210405	12	03F2100N	501	134	2	15	1
20210405	13	03F2100N	612	167	3	18	6
20210405	14	03F2100N	608	154	4	17	10
20210405	15	03F2100N	581	151	6	11	4
20210405	16	03F2100N	540	157	4	9	6
20210405	17	03F2100N	554	145	4	9	4
20210405	18	03F2100N	476	105	6	4	3
20210405	19	03F2100N	509	107	6	6	3
20210405	20	03F2100N	561	109	4	4	1
20210405	21	03F2100N	434	101	3	10	1
20210405	22	03F2100N	266	53	2	5	1
20210405	23	03F2100N	161	34	1	8	2
20210406	00	03F2100N	84	13	0	3	2
20210406	01	03F2100N	39	12	0	4	0
20210406	02	03F2100N	24	8	0	5	0
20210406	03	03F2100N	26	15	0	6	1
20210406	04	03F2100N	35	17	0	12	2
20210406	05	03F2100N	111	55	7	9	7
20210406	06	03F2100N	515	155	10	17	16
20210406	07	03F2100N	1333	375	20	37	13
20210406	08	03F2100N	830	401	9	68	23
20210406	09	03F2100N	590	358	3	69	36
20210406	10	03F2100N	533	312	5	81	41
20210406	11	03F2100N	462	323	4	110	40
20210406	12	03F2100N	430	219	3	58	22
20210406	13	03F2100N	466	325	5	70	26
20210406	14	03F2100N	473	373	7	87	37
20210406	15	03F2100N	497	332	7	77	31
20210406	16	03F2100N	610	342	19	71	28
20210406	17	03F2100N	728	292	7	42	12
20210406	18	03F2100N	548	161	8	24	11
20210406	19	03F2100N	405	114	4	20	7
20210406	20	03F2100N	317	98	3	12	7
20210406	21	03F2100N	333	78	4	10	3
20210406	22	03F2100N	228	50	2	9	5
20210406	23	03F2100N	100	38	0	5	4
20210407	00	03F2100N	51	18	0	10	1
20210407	01	03F2100N	54	8	0	3	0
20210407	02	03F2100N	23	11	0	4	2
20210407	03	03F2100N	14	15	0	6	0
20210407	04	03F2100N	39	24	0	8	3
20210407	05	03F2100N	77	60	7	12	10
20210407	06	03F2100N	485	157	12	24	14
20210407	07	03F2100N	1306	405	12	47	20
20210407	08	03F2100N	854	399	6	62	38
20210407	09	03F2100N	570	354	3	88	39
20210407	10	03F2100N	526	321	4	103	46
20210407	11	03F2100N	494	316	4	81	27
20210407	12	03F2100N	463	243	3	73	27
20210407	13	03F2100N	484	315	5	74	30
20210407	14	03F2100N	441	334	9	95	33
20210407	15	03F2100N	493	340	7	78	26
20210407	16	03F2100N	581	301	17	56	23
20210407	17	03F2100N	736	272	11	57	17
20210407	18	03F2100N	532	166	6	23	14
20210407	19	03F2100N	435	121	2	17	10
20210407	20	03F2100N	324	77	3	9	5
20210407	21	03F2100N	304	65	1	5	4
20210407	22	03F2100N	228	50	2	7	3
20210407	23	03F2100N	128	27	0	5	1
20210408	00	03F2100N	47	16	0	5	3
20210408	01	03F2100N	33	9	0	2	1
20210408	02	03F2100N	14	9	0	5	1
20210408	03	03F2100N	27	16	0	8	3
20210408	04	03F2100N	32	25	0	11	3
20210408	05	03F2100N	91	64	5	8	10
20210408	06	03F2100N	431	161	10	26	10
20210408	07	03F2100N	1290	432	8	44	20
20210408	08	03F2100N	792	372	9	58	23
20210408	09	03F2100N	571	348	3	88	53
20210408	10	03F2100N	507	341	9	69	42
20210408	11	03F2100N	401	291	14	84	31
20210408	12	03F2100N	442	205	7	51	24
20210408	13	03F2100N	498	276	4	70	28
20210408	14	03F2100N	470	394	6	83	30
20210408	15	03F2100N	546	351	9	81	29
20210408	16	03F2100N	558	322	26	61	36
20210408	17	03F2100N	764	296	6	43	18
20210408	18	03F2100N	554	157	8	26	16
20210408	19	03F2100N	377	116	2	17	10
20210408	20	03F2100N	317	91	4	6	5
20210408	21	03F2100N	267	72	3	8	4
20210408	22	03F2100N	224	59	2	6	4
20210408	23	03F2100N	126	30	0	7	1
